Add p-value and significant level at facet boxplot – Guorui Zhong
…
Add t-test annotation in specific subgroup

## subset data
df <- gapminder %>%
    filter(year %in% c(1957, 2002, 2007), continent != "Oceania") %>%
    select(country, year, lifeExp, continent) %>%
    mutate(paired = rep(1:(n() / 3), each = 3), year = factor(year))
df
## # A tibble: 420 × 5
##    country     year  lifeExp continent paired
##    <fct>       <fct>   <dbl> <fct>      <int>
##  1 Afghanistan 1957     30.3 Asia           1
##  2 Afghanistan 2002     42.1 Asia           1
##  3 Afghanistan 2007     43.8 Asia           1
##  4 Albania     1957     59.3 Europe         2
##  5 Albania     2002     75.7 Europe         2
##  6 Albania     2007     76.4 Europe         2
##  7 Algeria     1957     45.7 Africa         3
##  8 Algeria     2002     71.0 Africa         3
##  9 Algeria     2007     72.3 Africa         3
## 10 Angola      1957     32.0 Africa         4
## # ℹ 410 more rows
## statistical analysis
…
